{"name":"factTest","id":"RegisterTest:factTest","testCaseName":"RegisterTest","testSteps":[{"number":1,"description":"Y Mina QA executes a GET on the resource /plans","duration":362,"startTime":"2022-12-28T19:09:23.577857800-05:00[America/Bogota]","result":"SUCCESS","precondition":false,"level":0,"children":[{"number":2,"description":"GET https://reqres.in/api/plans","duration":3,"startTime":"2022-12-28T19:09:23.937256800-05:00[America/Bogota]","result":"SUCCESS","restQuery":{"method":"GET","path":"https://reqres.in/api/plans","content":"","contentType":"application/json","requestHeaders":"Accept\u003d*/*\r\n\t\t\t\tContent-Type\u003dapplication/json","requestCookies":"","responseHeaders":"Date: Thu, 29 Dec 2022 00:09:23 GMT\r\nContent-Type: application/json; charset\u003dutf-8\r\nTransfer-Encoding: chunked\r\nConnection: keep-alive\r\nX-Powered-By: Express\r\nAccess-Control-Allow-Origin: *\r\nEtag: W/\"2c1-N6Rqerxquq2kgQhL51EiSg4x0R8\"\r\nVia: 1.1 vegur\r\nCache-Control: max-age\u003d14400\r\nCF-Cache-Status: HIT\r\nAge: 896\r\nReport-To: {\"endpoints\":[{\"url\":\"https:\\/\\/a.nel.cloudflare.com\\/report\\/v3?s\u003dI%2FveiFnD42tIttqvrj4C8xWAZ%2BsvnHsbbjb6q0tTsl2AVBd99VLLmuyYsfUf5gttwwAl1mx72HD%2BTocUj1dQ7SiFOWrXa1HhksKwbU0fhZPI%2BIaj%2Fj9hlF7qVw%3D%3D\"}],\"group\":\"cf-nel\",\"max_age\":604800}\r\nNEL: {\"success_fraction\":0,\"report_to\":\"cf-nel\",\"max_age\":604800}\r\nVary: Accept-Encoding\r\nServer: cloudflare\r\nCF-RAY: 780e4e84ae9fda9b-MIA\r\nContent-Encoding: gzip\r","responseCookies":"\r","responseBody":"{\n    \"page\": 1,\n    \"per_page\": 6,\n    \"total\": 12,\n    \"total_pages\": 2,\n    \"data\": [\n        {\n            \"id\": 1,\n            \"name\": \"cerulean\",\n            \"year\": 2000,\n            \"color\": \"#98B2D1\",\n            \"pantone_value\": \"15-4020\"\n        },\n        {\n            \"id\": 2,\n            \"name\": \"fuchsia rose\",\n            \"year\": 2001,\n            \"color\": \"#C74375\",\n            \"pantone_value\": \"17-2031\"\n        },\n        {\n            \"id\": 3,\n            \"name\": \"true red\",\n            \"year\": 2002,\n            \"color\": \"#BF1932\",\n            \"pantone_value\": \"19-1664\"\n        },\n        {\n            \"id\": 4,\n            \"name\": \"aqua sky\",\n            \"year\": 2003,\n            \"color\": \"#7BC4C4\",\n            \"pantone_value\": \"14-4811\"\n        },\n        {\n            \"id\": 5,\n            \"name\": \"tigerlily\",\n            \"year\": 2004,\n            \"color\": \"#E2583E\",\n            \"pantone_value\": \"17-1456\"\n        },\n        {\n            \"id\": 6,\n            \"name\": \"blue turquoise\",\n            \"year\": 2005,\n            \"color\": \"#53B0AE\",\n            \"pantone_value\": \"15-5217\"\n        }\n    ],\n    \"support\": {\n        \"url\": \"https://reqres.in/#support-heading\",\n        \"text\": \"To keep ReqRes free, contributions towards server costs are appreciated!\"\n    }\n}","statusCode":200},"precondition":false,"level":1}]}],"userStory":{"id":"RegisterTest","storyName":"Register test","displayName":"Register test","storyClassName":"RegisterTest","path":"","type":"story","qualifiedTag":{"name":"Register test","type":"story","displayName":"Register test"}},"featureTag":{"name":"Register test","type":"story","displayName":"Register test"},"title":"Fact test","tags":[{"name":"Register test","type":"story","displayName":"Register test"}],"allTags":[{"name":"Register test","type":"story","displayName":"Register test"}],"startTime":"2022-12-28T19:09:23.558281-05:00[America/Bogota]","duration":950,"projectKey":"","driver":"","isManualTestingUpToDate":false,"manual":false,"testSource":"JUnit","actors":[{"name":"Y Mina QA","can":["call an API at https://reqres.in/api"],"has":["Los plans son [{id\u003d1, name\u003dcerulean, year\u003d2000, color\u003d#98B2D1, pantone_value\u003d15-4020}, {id\u003d2, name\u003dfuchsia rose, year\u003d2001, color\u003d#C74375, pantone_value\u003d17-2031}, {id\u003d3, name\u003dtrue red, year\u003d2002, color\u003d#BF1932, pantone_value\u003d19-1664}, {id\u003d4, name\u003daqua sky, year\u003d2003, color\u003d#7BC4C4, pantone_value\u003d14-4811}, {id\u003d5, name\u003dtigerlily, year\u003d2004, color\u003d#E2583E, pantone_value\u003d17-1456}, {id\u003d6, name\u003dblue turquoise, year\u003d2005, color\u003d#53B0AE, pantone_value\u003d15-5217}]"]}],"order":0,"result":"SUCCESS"}